{
	"info": {
		"_postman_id": "c305c55e-9b30-41c9-92a3-8f75764584e9",
		"name": "EVO",
		"schema": "https://schema.getpostman.com/json/collection/v2.1.0/collection.json"
	},
	"item": [
		{
			"name": "power-mains-raw",
			"item": [
				{
					"name": "mains power delete",
					"request": {
						"method": "DELETE",
						"header": [
							{
								"key": "Content-Type",
								"name": "Content-Type",
								"value": "application/json",
								"type": "text"
							}
						],
						"body": {
							"mode": "raw",
							"raw": "",
							"options": {
								"raw": {
									"language": "json"
								}
							}
						},
						"url": {
							"raw": "http://localhost:8000/power-mains-raw/1",
							"protocol": "http",
							"host": [
								"localhost"
							],
							"port": "8000",
							"path": [
								"power-mains-raw",
								"1"
							]
						}
					},
					"response": []
				},
				{
					"name": "mains power list",
					"protocolProfileBehavior": {
						"disableBodyPruning": true
					},
					"request": {
						"method": "GET",
						"header": [
							{
								"key": "Content-Type",
								"name": "Content-Type",
								"value": "application/json",
								"type": "text"
							}
						],
						"body": {
							"mode": "raw",
							"raw": "{\n\t\"start_time\": 1559525031,\n\t\"end_time\": 1579526031,\n\t\"aggregation\": \"none\"\n}",
							"options": {
								"raw": {
									"language": "json"
								}
							}
						},
						"url": {
							"raw": "http://localhost:8000/power-mains-raw",
							"protocol": "http",
							"host": [
								"localhost"
							],
							"port": "8000",
							"path": [
								"power-mains-raw"
							]
						}
					},
					"response": []
				},
				{
					"name": "mains power create",
					"request": {
						"method": "POST",
						"header": [
							{
								"key": "Content-Type",
								"name": "Content-Type",
								"value": "application/json",
								"type": "text"
							}
						],
						"body": {
							"mode": "raw",
							"raw": "{\n  \"current\": 22.5,\n  \"voltage\": 19.98,\n  \"daq_timestamp\":\"2019-10-13 12:25:17.004080\",\n  \"real_power\": 30, \n  \"reactive_power\": 76,\n  \"apparent_power\": 36,\n  \"energy\": 12,\n  \"carbon\": 43,\n  \"cost\": 0.56,\n  \"standing_charge\": 0.45,\n  \"power_factor\": 4, \n  \"frequency\": 10000, \n  \"thdc\": 12.23331, \n  \"current_harmonic_1\": 14.444421, \n  \"current_harmonic_2\": 1002311.23, \n  \"current_harmonic_3\": 132312314142, \n  \"thdv\": 123, \n  \"voltage_harmonic_1\": 12.23,\n  \"voltage_harmonic_2\": 14.665,\n  \"voltage_harmonic_3\": 41.2,\n  \"channel\": 1\n}",
							"options": {
								"raw": {
									"language": "json"
								}
							}
						},
						"url": {
							"raw": "http://localhost:8000/power-mains-raw",
							"protocol": "http",
							"host": [
								"localhost"
							],
							"port": "8000",
							"path": [
								"power-mains-raw"
							]
						}
					},
					"response": []
				},
				{
					"name": "mains power update",
					"request": {
						"method": "PUT",
						"header": [
							{
								"key": "Content-Type",
								"name": "Content-Type",
								"value": "application/json",
								"type": "text"
							}
						],
						"body": {
							"mode": "raw",
							"raw": "{\n  \"current\": 29.5,\n  \"voltage\": 39.98,\n  \"phase\": 1\n}",
							"options": {
								"raw": {
									"language": "json"
								}
							}
						},
						"url": {
							"raw": "http://localhost:8000/power-mains-raw/1",
							"protocol": "http",
							"host": [
								"localhost"
							],
							"port": "8000",
							"path": [
								"power-mains-raw",
								"1"
							]
						}
					},
					"response": []
				},
				{
					"name": "mains power get",
					"request": {
						"method": "GET",
						"header": [],
						"url": {
							"raw": "http://localhost:8000/power-mains-raw/1",
							"protocol": "http",
							"host": [
								"localhost"
							],
							"port": "8000",
							"path": [
								"power-mains-raw",
								"1"
							]
						}
					},
					"response": []
				}
			],
			"event": [
				{
					"listen": "prerequest",
					"script": {
						"id": "5f710d34-5392-45eb-887f-db2a99fc1a4f",
						"type": "text/javascript",
						"exec": [
							""
						]
					}
				},
				{
					"listen": "test",
					"script": {
						"id": "7b2deac2-d75a-4898-a885-ed19789f8761",
						"type": "text/javascript",
						"exec": [
							""
						]
					}
				}
			],
			"protocolProfileBehavior": {}
		},
		{
			"name": "power-mains-agg",
			"item": [
				{
					"name": "mains power delete",
					"request": {
						"method": "DELETE",
						"header": [
							{
								"key": "Content-Type",
								"name": "Content-Type",
								"value": "application/json",
								"type": "text"
							}
						],
						"body": {
							"mode": "raw",
							"raw": "",
							"options": {
								"raw": {
									"language": "json"
								}
							}
						},
						"url": {
							"raw": "http://localhost:8000/power-mains-agg/1",
							"protocol": "http",
							"host": [
								"localhost"
							],
							"port": "8000",
							"path": [
								"power-mains-agg",
								"1"
							]
						}
					},
					"response": []
				},
				{
					"name": "mains power list",
					"protocolProfileBehavior": {
						"disableBodyPruning": true
					},
					"request": {
						"method": "GET",
						"header": [
							{
								"key": "Content-Type",
								"name": "Content-Type",
								"value": "application/json",
								"type": "text"
							}
						],
						"body": {
							"mode": "raw",
							"raw": "{\n\t\"start_time\": 1559525031,\n\t\"end_time\": 1579526031,\n\t\"aggregation\": \"none\"\n}",
							"options": {
								"raw": {
									"language": "json"
								}
							}
						},
						"url": {
							"raw": "http://localhost:8000/power-mains-agg/",
							"protocol": "http",
							"host": [
								"localhost"
							],
							"port": "8000",
							"path": [
								"power-mains-agg",
								""
							]
						}
					},
					"response": []
				},
				{
					"name": "mains power create",
					"request": {
						"method": "POST",
						"header": [
							{
								"key": "Content-Type",
								"name": "Content-Type",
								"value": "application/json",
								"type": "text"
							}
						],
						"body": {
							"mode": "raw",
							"raw": "{\n  \"start_timestamp\":\"2019-10-13 12:25:15.004080\",\n  \"end_timestamp\":\"2019-10-13 12:40:15.004080\",\n  \"current\": 22.5,\n  \"voltage\": 19.98,\n  \"real_power\": 30, \n  \"reactive_power\": 76,\n  \"apparent_power\": 36,\n  \"energy\": 12,\n  \"carbon\": 43,\n  \"cost\": 0.56,\n  \"standing_charge\": 0.45,\n  \"power_factor\": 4, \n  \"frequency\": 10000, \n  \"thdc\": 12.23331, \n  \"current_harmonic_1\": 14.444421, \n  \"current_harmonic_2\": 1002311.23, \n  \"current_harmonic_3\": 132312314142, \n  \"thdv\": 123, \n  \"voltage_harmonic_1\": 12.23,\n  \"voltage_harmonic_2\": 14.665,\n  \"voltage_harmonic_3\": 41.2,\n  \"channel\": 1\n}",
							"options": {
								"raw": {
									"language": "json"
								}
							}
						},
						"url": {
							"raw": "http://localhost:8000/power-mains-agg/",
							"protocol": "http",
							"host": [
								"localhost"
							],
							"port": "8000",
							"path": [
								"power-mains-agg",
								""
							]
						}
					},
					"response": []
				},
				{
					"name": "mains power update",
					"request": {
						"method": "PUT",
						"header": [
							{
								"key": "Content-Type",
								"name": "Content-Type",
								"value": "application/json",
								"type": "text"
							}
						],
						"body": {
							"mode": "raw",
							"raw": "{\n  \"current\": 29.5,\n  \"voltage\": 39.98,\n  \"phase\": 1\n}",
							"options": {
								"raw": {
									"language": "json"
								}
							}
						},
						"url": {
							"raw": "http://localhost:8000/power-mains-agg/1",
							"protocol": "http",
							"host": [
								"localhost"
							],
							"port": "8000",
							"path": [
								"power-mains-agg",
								"1"
							]
						}
					},
					"response": []
				},
				{
					"name": "mains power get",
					"request": {
						"method": "GET",
						"header": [],
						"url": {
							"raw": "http://localhost:8000/power-mains-agg/1",
							"protocol": "http",
							"host": [
								"localhost"
							],
							"port": "8000",
							"path": [
								"power-mains-agg",
								"1"
							]
						}
					},
					"response": []
				}
			],
			"event": [
				{
					"listen": "prerequest",
					"script": {
						"id": "5f710d34-5392-45eb-887f-db2a99fc1a4f",
						"type": "text/javascript",
						"exec": [
							""
						]
					}
				},
				{
					"listen": "test",
					"script": {
						"id": "7b2deac2-d75a-4898-a885-ed19789f8761",
						"type": "text/javascript",
						"exec": [
							""
						]
					}
				}
			],
			"protocolProfileBehavior": {}
		},
		{
			"name": "power-quality-raw",
			"item": [
				{
					"name": "mains power delete",
					"request": {
						"method": "DELETE",
						"header": [
							{
								"key": "Content-Type",
								"name": "Content-Type",
								"value": "application/json",
								"type": "text"
							}
						],
						"body": {
							"mode": "raw",
							"raw": "",
							"options": {
								"raw": {
									"language": "json"
								}
							}
						},
						"url": {
							"raw": "http://localhost:8000/power-quality-raw/1",
							"protocol": "http",
							"host": [
								"localhost"
							],
							"port": "8000",
							"path": [
								"power-quality-raw",
								"1"
							]
						}
					},
					"response": []
				},
				{
					"name": "mains power list",
					"protocolProfileBehavior": {
						"disableBodyPruning": true
					},
					"request": {
						"method": "GET",
						"header": [
							{
								"key": "Content-Type",
								"name": "Content-Type",
								"value": "application/json",
								"type": "text"
							}
						],
						"body": {
							"mode": "raw",
							"raw": "{\n\t\"start_time\": 1559525031,\n\t\"end_time\": 1579526031,\n\t\"aggregation\": \"none\"\n}",
							"options": {
								"raw": {
									"language": "json"
								}
							}
						},
						"url": {
							"raw": "http://localhost:8000/power-quality-raw",
							"protocol": "http",
							"host": [
								"localhost"
							],
							"port": "8000",
							"path": [
								"power-quality-raw"
							]
						}
					},
					"response": []
				},
				{
					"name": "mains power create",
					"request": {
						"method": "POST",
						"header": [
							{
								"key": "Content-Type",
								"name": "Content-Type",
								"value": "application/json",
								"type": "text"
							}
						],
						"body": {
							"mode": "raw",
							"raw": "{\n  \"harmonic_number\": 1,\n  \"voltage_harmonic\": 22.45,\n  \"current_harmonic\": 10.98,\n  \"daq_timestamp\": \"2019-10-13 12:25:17.004080\",\n  \"additional_current_input\": \"false\",\n  \"channel\": 1\n}",
							"options": {
								"raw": {
									"language": "json"
								}
							}
						},
						"url": {
							"raw": "http://localhost:8000/power-quality-raw",
							"protocol": "http",
							"host": [
								"localhost"
							],
							"port": "8000",
							"path": [
								"power-quality-raw"
							]
						}
					},
					"response": []
				},
				{
					"name": "mains power update",
					"request": {
						"method": "PUT",
						"header": [
							{
								"key": "Content-Type",
								"name": "Content-Type",
								"value": "application/json",
								"type": "text"
							}
						],
						"body": {
							"mode": "raw",
							"raw": "{\n  \"current\": 29.5,\n  \"voltage\": 39.98,\n  \"phase\": 1\n}",
							"options": {
								"raw": {
									"language": "json"
								}
							}
						},
						"url": {
							"raw": "http://localhost:8000/power-quality-raw/1",
							"protocol": "http",
							"host": [
								"localhost"
							],
							"port": "8000",
							"path": [
								"power-quality-raw",
								"1"
							]
						}
					},
					"response": []
				},
				{
					"name": "mains power get",
					"request": {
						"method": "GET",
						"header": [],
						"url": {
							"raw": "http://localhost:8000/power-quality-raw/1",
							"protocol": "http",
							"host": [
								"localhost"
							],
							"port": "8000",
							"path": [
								"power-quality-raw",
								"1"
							]
						}
					},
					"response": []
				}
			],
			"event": [
				{
					"listen": "prerequest",
					"script": {
						"id": "5f710d34-5392-45eb-887f-db2a99fc1a4f",
						"type": "text/javascript",
						"exec": [
							""
						]
					}
				},
				{
					"listen": "test",
					"script": {
						"id": "7b2deac2-d75a-4898-a885-ed19789f8761",
						"type": "text/javascript",
						"exec": [
							""
						]
					}
				}
			],
			"protocolProfileBehavior": {}
		},
		{
			"name": "power-quality-agg",
			"item": [
				{
					"name": "mains power delete",
					"request": {
						"method": "DELETE",
						"header": [
							{
								"key": "Content-Type",
								"name": "Content-Type",
								"value": "application/json",
								"type": "text"
							}
						],
						"body": {
							"mode": "raw",
							"raw": "",
							"options": {
								"raw": {
									"language": "json"
								}
							}
						},
						"url": {
							"raw": "http://localhost:8000/power-quality-agg/1",
							"protocol": "http",
							"host": [
								"localhost"
							],
							"port": "8000",
							"path": [
								"power-quality-agg",
								"1"
							]
						}
					},
					"response": []
				},
				{
					"name": "mains power list",
					"protocolProfileBehavior": {
						"disableBodyPruning": true
					},
					"request": {
						"method": "GET",
						"header": [
							{
								"key": "Content-Type",
								"name": "Content-Type",
								"value": "application/json",
								"type": "text"
							}
						],
						"body": {
							"mode": "raw",
							"raw": "{\n\t\"start_time\": 1559525031,\n\t\"end_time\": 1579526031,\n\t\"aggregation\": \"none\"\n}",
							"options": {
								"raw": {
									"language": "json"
								}
							}
						},
						"url": {
							"raw": "http://localhost:8000/power-quality-agg/",
							"protocol": "http",
							"host": [
								"localhost"
							],
							"port": "8000",
							"path": [
								"power-quality-agg",
								""
							]
						}
					},
					"response": []
				},
				{
					"name": "mains power create",
					"request": {
						"method": "POST",
						"header": [
							{
								"key": "Content-Type",
								"name": "Content-Type",
								"value": "application/json",
								"type": "text"
							}
						],
						"body": {
							"mode": "raw",
							"raw": "{\n  \"start_timestamp\":\"2019-10-13 12:25:15.004080\",\n  \"end_timestamp\":\"2019-10-13 12:40:15.004080\",\n  \"current\": 22.5,\n  \"voltage\": 19.98,\n  \"real_power\": 30, \n  \"reactive_power\": 76,\n  \"apparent_power\": 36,\n  \"energy\": 12,\n  \"carbon\": 43,\n  \"cost\": 0.56,\n  \"standing_charge\": 0.45,\n  \"power_factor\": 4, \n  \"frequency\": 10000, \n  \"thdc\": 12.23331, \n  \"current_harmonic_1\": 14.444421, \n  \"current_harmonic_2\": 1002311.23, \n  \"current_harmonic_3\": 132312314142, \n  \"thdv\": 123, \n  \"voltage_harmonic_1\": 12.23,\n  \"voltage_harmonic_2\": 14.665,\n  \"voltage_harmonic_3\": 41.2,\n  \"channel\": 1\n}",
							"options": {
								"raw": {
									"language": "json"
								}
							}
						},
						"url": {
							"raw": "http://localhost:8000/power-quality-agg/",
							"protocol": "http",
							"host": [
								"localhost"
							],
							"port": "8000",
							"path": [
								"power-quality-agg",
								""
							]
						}
					},
					"response": []
				},
				{
					"name": "mains power update",
					"request": {
						"method": "PUT",
						"header": [
							{
								"key": "Content-Type",
								"name": "Content-Type",
								"value": "application/json",
								"type": "text"
							}
						],
						"body": {
							"mode": "raw",
							"raw": "{\n  \"current\": 29.5,\n  \"voltage\": 39.98,\n  \"phase\": 1\n}",
							"options": {
								"raw": {
									"language": "json"
								}
							}
						},
						"url": {
							"raw": "http://localhost:8000/power-quality-agg/1",
							"protocol": "http",
							"host": [
								"localhost"
							],
							"port": "8000",
							"path": [
								"power-quality-agg",
								"1"
							]
						}
					},
					"response": []
				},
				{
					"name": "mains power get",
					"request": {
						"method": "GET",
						"header": [],
						"url": {
							"raw": "http://localhost:8000/power-quality-agg/1",
							"protocol": "http",
							"host": [
								"localhost"
							],
							"port": "8000",
							"path": [
								"power-quality-agg",
								"1"
							]
						}
					},
					"response": []
				}
			],
			"event": [
				{
					"listen": "prerequest",
					"script": {
						"id": "5f710d34-5392-45eb-887f-db2a99fc1a4f",
						"type": "text/javascript",
						"exec": [
							""
						]
					}
				},
				{
					"listen": "test",
					"script": {
						"id": "7b2deac2-d75a-4898-a885-ed19789f8761",
						"type": "text/javascript",
						"exec": [
							""
						]
					}
				}
			],
			"protocolProfileBehavior": {}
		}
	],
	"protocolProfileBehavior": {}
}